/Users/easycash/GitLabRepositories/erbAutomatic/src/main/java/lectureFile/MainClassErb.java
/Users/easycash/GitLabRepositories/erbAutomatic/src/main/java/lectureFile/MetodsOutInp.java
/Users/easycash/GitLabRepositories/erbAutomatic/src/main/java/lectureFile/IMetodsOutInp.java
